{
    "status": "OK",
    "pads": [
        {
            "status": "OK",
            "id": "DM32JWG2",
            "title": "Ruby Test",
            "language": "ruby",
            "participants": [
                "vincent",
                "Guest 405"
            ],
            "contents": "5.times do\n  puts 'Hello, World!'\nend\n",
            "events": [
                "2014-11-14T03:05:11Z: Vincent joined the pad",
                "2014-11-14T03:05:17Z: Vincent locked the pad",
                "2014-11-14T03:05:21Z: Vincent unlocked the pad",
                "2014-11-14T03:05:25Z: Guest 202 joined the pad",
                "2014-11-14T03:06:39Z: Guest 202 ran csharp code"
            ],
            "locked": false,
            "private": false,
            "execution_enabled": true,
            "created_at": "2014-11-14T03:02:45Z",
            "updated_at": "2014-11-14T03:06:39Z",
            "url": "https://coderpad.io/DM32JWG2",
            "playback": "https://coderpad.io/DM32JWG2/playback",
            "history": "https://coderpad.firebaseio.com/DM32JWG2/history.json",
            "hangout": "https://coderpad.io/DM32JWG2/hangout"
        }
    ],
    "next_page": "https://coderpad.io/api/pads?sort=updated_at,desc&page=2",
    "total": 420
}